…
### Binding the datasets together

All the datasets are binded together to form an all trips dataset

``` r
all_trips_data <- bind_rows(cyclistic_data_JAN,cyclistic_data_FEB,cyclistic_data_MAR, 
                            cyclistic_data_APR,cyclistic_data_MAY,cyclistic_data_JUN,cyclistic_data_JUL)
tibble(all_trips_data)
```

    ## # A tibble: 2,795,820 x 15
    ##    ride_id          rideable_type started_at          ended_at           
    ##    <chr>            <chr>         <dttm>              <dttm>             
    ##  1 E19E6F1B8D4C42ED electric_bike 2021-01-23 16:14:19 2021-01-23 16:24:44
    ##  2 DC88F20C2C55F27F electric_bike 2021-01-27 18:43:08 2021-01-27 18:47:12
    ##  3 EC45C94683FE3F27 electric_bike 2021-01-21 22:35:54 2021-01-21 22:37:14
    ##  4 4FA453A75AE377DB electric_bike 2021-01-07 13:31:13 2021-01-07 13:42:55
    ##  5 BE5E8EB4E7263A0B electric_bike 2021-01-23 02:24:02 2021-01-23 02:24:45
    ##  6 5D8969F88C773979 electric_bike 2021-01-09 14:24:07 2021-01-09 15:17:54
    ##  7 09275CC10F854E9E electric_bike 2021-01-04 05:05:04 2021-01-04 05:10:39
    ##  8 DF7A32A217AEFB14 electric_bike 2021-01-14 15:07:00 2021-01-14 15:13:40
    ##  9 C2EFC62379EB716C electric_bike 2021-01-09 09:57:55 2021-01-09 10:00:26
    ## 10 B9F73448DFBE0D45 classic_bike  2021-01-24 19:15:38 2021-01-24 19:22:51
    ## # ... with 2,795,810 more rows, and 11 more variables:
    ## #   start_station_name <chr>, start_station_id <chr>, end_station_name <chr>,
    ## #   end_station_id <chr>, start_lat <dbl>, start_lng <dbl>, end_lat <dbl>,
    ## #   end_lng <dbl>, member_casual <chr>, ride_length <chr>, day_of_ride <dbl>
…
